#mc_event  CS(fb) Acceptance NumEvents
################### 13TeV Pythia8 JZW  ##############################
147910 7.8420E+13 9.7193E-01 3498000 #JZ0W 0-20 GeV
147911 7.8420E+13 2.7903E-04 2998000 #JZ1W 20-80 GeV
147912 5.7312E+10 5.2261E-03 500000  #JZ2W 80-200 GeV
147913 1.4478E+09 1.8068E-03 499500  #JZ3W 200-500 GeV
147914 2.3093E+07 1.3276E-03 477000  #JZ4W 500-1000 GeV
147915 2.3793E+05 5.0449E-03 499000  #JZ5W 1000-1500 GeV
147916 5.4279E+03 1.3886E-02 493500  #JZ6W 1500-2000 GeV
147917 9.4172E+02 6.7141E-02 497000  #JZ7W 2000+ GeV
################### 13TeV Pythia8 ExcitedQ ################################
203894 2.8933E+06 1.0000E+00 10000 #800
203896 2.8778E+02 1.0000E+00 10000 #2000
203897 7.3850E+03 1.0000E+00 10000 #2500
203898 2.1523E+03 1.0000E+00 10000 #3000
203899 6.8563E+02 1.0000E+00 10000 #3500
203900 2.2813E+02 1.0000E+00 10000 #4000
203901 7.9773E+01 1.0000E+00 10000 #4500
203902 2.8010E+01 1.0000E+00 10000 #5000
203903 1.0070E+01 1.0000E+00 10000 #5500
203904 3.6128E+00 1.0000E+00 10000 #6000
203905 1.2893E+00 1.0000E+00 10000 #6500
203906 4.7240E-01 1.0000E+00 10000 #7000
################### 13TeV Pythia8 ExcitedQ ################################
301295 1.7685E+07 1.0000E+00 40000 #500
301296 8.1795E+06 1.0000E+00 40000 #600
301297 2.3298E+06 1.0000E+00 40000 #800
301298 8.4650E+05 1.0000E+00 40000 #1000
301299 2.3863E+04 1.0000E+00 40000 #2000
301300 6.2668E+03 1.0000E+00 40000 #2500
301301 1.8255E+03 1.0000E+00 40000 #3000
301302 5.8315E+02 1.0000E+00 40000 #3500
301303 1.9403E+02 1.0000E+00 40000 #4000
301304 6.5838E+01 1.0000E+00 40000 #4500
301305 2.2763E+01 1.0000E+00 40000 #5000
301306 7.8313E+00 1.0000E+00 40000 #5500
301307 2.7040E+00 1.0000E+00 40000 #6000
301308 9.3650E-01 1.0000E+00 40000 #6500
301309 3.3280E-01 1.0000E+00 40000 #7000
################## mc15_13TeV Pythia8EvtGen
361000 7.8420E+13 9.7563E-01 2000000 #JZ0 0-20 GeV
361001 7.8420E+13 2.4819E-02 2000000 #JZ1 20-60 GeV
361002 2.4334E+12 1.0040E-02 2000000 #JZ2 60-160 GeV
361003 2.6454E+10 1.1798E-02 2000000 #JZ3 160-400 GeV
361004 2.5464E+08 1.3440E-02 2000000 #JZ4 400-800 GeV
361005 4.5536E+06 1.4577E-02 1999000 #JZ5 800-1300 GeV
361006 2.5752E+05 1.0018E-02 2000000 #JZ6 1300-1800 GeV
361007 1.6214E+04 1.1120E-02 2000000 #JZ7 1800-2500 GeV
361008 6.2505E+02 1.0331E-02 1999000 #JZ8 2500-3200 GeV
361009 1.9640E+01 1.2110E-02 2000000 #JZ9 3200-3900 GeV
361010 1.1961E+00 5.8921E-03 2000000 #JZ10 3900-4600 GeV
361011 4.2260E-02 2.6753E-03 2000000 #JZ11 4600-5300 GeV
################## mc15_13TeV Pythia8EvtGen
361020 7.8420E+13 1.0240E+00 16000000 #JZ0W 0-20 GeV
361021 7.8420E+13 6.7198E-04 15998000 #JZ1W 20-60 GeV
361022 2.4334E+12 3.3432E-04 15989500 #JZ2W 60-160 GeV
361023 2.6454E+10 3.2012E-04 15879500 #JZ3W 160-400 GeV
361024 2.5464E+08 5.3156E-04 15925500 #JZ4W 400-800 GeV
361025 4.5536E+06 9.2440E-04 15993500 #JZ5W 800-1300 GeV
361026 2.5752E+05 9.4071E-04 17734000 #JZ6W 1300-1800 GeV
361027 1.6214E+04 3.9264E-04 15983000 #JZ7W 1800-2500 GeV
361028 6.2505E+02 1.0176E-02 15999000 #JZ8W 2500-3200 GeV
361029 1.9640E+01 1.2076E-02 13995500 #JZ9W 3200-3900 GeV
361030 1.1961E+00 5.9093E-03 13985000 #JZ10W 3900-4600 GeV
361031 4.2260E-02 2.6759E-03 15958000 #JZ11W 4600-5300 GeV
361032 1.0370E-03 4.2587E-04 15995600 #JZ12W 5300-7000 GeV
##################### mc14 13TeV Herwig #####################
187030 4.4960E+07 9.8294E-01 499500
187031 6.6979E+12 2.0111E-03 499000
187032 4.3883E+10 3.2619E-03 500000
187033 1.0089E+09 1.2276E-03 499500
187034 1.5338E+07 9.9168E-04 500000
187035 4.3570E+05 1.4351E-03 500000
187036 4.2693E+04 9.8697E-04 499500
187037 7.0025E+03 5.2787E-03 499500
##################### mc15 13TeV CI minus Lambda 7 #####################
301339 2.6247E+10 3.2114E-04 997000
301340 2.5287E+08 5.3814E-04 999000
301341 4.5501E+06 1.0648E-03 999500
301342 2.6659E+05 1.7528E-03 998500
301343 2.0268E+04 2.1569E-03 1000000
301344 1.7293E+03 5.1987E-02 1000000
301345 2.1139E+02 5.0280E-02 1000000
301346 3.6313E+01 2.2021E-02 1000000
301347 3.4451E+00 7.8513E-03 981500
301348 1.8452E-01 1.0469E-03 999000
##################### mc15 13TeV CI plus Lambda 7 #####################
301352 2.6247E+04 3.1883E-04 990500
301353 2.5272E+08 5.2966E-04 999500
301354 4.5167E+06 9.5229E-04 999500
301355 2.5627E+05 1.3548E-03 999000
301356 1.7434E+04 1.8305E-03 1000000
301357 1.2548E+03 5.5386E-02 1000000
301358 1.6026E+02 5.5441E-02 1000000
301359 2.9628E+01 2.3739E-02 1000000
301360 2.9825E+00 8.2493E-03 999500
301361 1.6610E-01 1.0885E-03 999500
##################### mc15 13TeV CI minus Lambda 10 #####################
301365 2.6247E+04 3.1896E-04 998500
301366 2.5282E+08 5.3429E-04 999500
301367 4.5351E+06 9.6843E-04 1000000
301368 2.5990E-01 1.1927E-03 985000
301369 1.7483E+04 9.5499E-04 999000
301370 9.4759E+02 3.0552E-02 1000000
301371 7.2002E+01 4.0875E-02 1000000
301372 1.0464E+01 1.9962E-02 1000000
301373 9.1709E-01 7.4962E-03 999500
301374 4.7387E-02 1.0205E-03 1000000
##################### mc15 13TeV CI plus Lambda 10 #####################
301378 2.6246E+04 3.1873E-04 999000
301379 2.5275E+02 5.2811E-04 999500
301380 4.5186E+06 9.1425E-04 999500
301381 2.5484E+05 9.8711E-04 999500
301382 1.6094E+04 6.8530E-04 1000000
301383 7.1523E+02 2.6493E-02 1000000
301384 4.6979E+01 4.4674E-02 1000000
301385 7.1845E+00 2.2634E-02 1000000
301386 6.9041E-01 8.2594E-03 1000000
301387 3.8362E-02 1.0976E-03 985500
##################### mc15 13TeV Powheg+Pythia #####################
426001 4.2163E+14 3.4956E-03 2000000
426002 4.8024E+13 4.1070E-04 2000000
426003 1.9084E+12 1.4988E-04 2000000
426004 1.7362E+11 1.8654E-05 2000000
426005 5.2594E+09 1.1846E-05 2000000
426006 2.7612E+08 8.3645E-06 2000000
426007 2.6410E+07 6.6710E-06 2000000
426008 7.7298E+04 8.3211E-05 500000
426009 2.7470E+03 9.0501E-05 500000
##################### mc15 13TeV Powheg+Herwig #####################
#### Take same info from Powheg+Pythia due to a bug ####
426101 4.2163E+14 3.4956E-03 2000000
426102 4.8024E+13 4.1070E-04 2000000
426103 1.9084E+12 1.4988E-04 2000000
426104 1.7362E+11 1.8654E-05 2000000
426105 5.2594E+09 1.1846E-05 2000000
426106 2.7612E+08 8.3645E-06 2000000
426107 2.6410E+07 6.6710E-06 2000000
426108 7.7298E+04 8.3211E-05 500000
426109 2.7470E+03 9.0501E-05 500000
#################### mc15 QBH Quantum Black Holes ###########
303456 1.0290E+04 1.0000E+00 20000 #4.5
303457 3.7290E+03 1.0000E+00 20000 #5
303458 1.3440E+03 1.0000E+00 20000 #5.5
303459 4.7580E+02 1.0000E+00 20000 #6
303460 1.6350E+02 1.0000E+00 20000 #6.5
303461 5.3860E+01 1.0000E+00 20000 #7
303462 1.6780E+01 1.0000E+00 20000 #7.5
303463 4.8720E+00 1.0000E+00 20000 #8
303464 1.2920E+00 1.0000E+00 20000 #8.5
303465 3.0540E-01 1.0000E+00 5000  #9
303466 6.2220E-02 1.0000E+00 20000 #9.5
303467 1.0400E-02 1.0000E+00 20000 #10
################# mc15 BlackMax Quantum Black Holes ########################
303468 1.7898E+04 1.0000E+00 20000 # 4
303469 2.3475E+03 1.0000E+00 20000 # 5
303470 8.4588E+02 1.0000E+00 20000 # 5.5
303471 2.9958E+02 1.0000E+00 20000 # 6
303472 1.0183E+02 1.0000E+00 20000 # 6.5
303473 3.3335E+01 1.0000E+00 20000 # 7
303474 1.0393E+01 1.0000E+00 20000 # 7.5
303475 2.9853E+00 1.0000E+00 20000 # 8
303476 7.7647E-01 1.0000E+00 15000 # 8.5
303477 1.8250E-01 1.0000E+00 5000 # 9
303478 3.6260E-02 1.0000E+00 5000 # 9.5
303479 6.0135E-03 1.0000E+00 20000 #10
############### mc15 Z'->bb ###########################
301920 1.3198E+04 1.0000E+00 20000 # 600 GeV
301921 4.3098E+03 1.0000E+00 20000 # 800 GeV
301922 1.7476E+03 1.0000E+00 40000 # 1000 GeV
301923 6.6380E+02 1.0000E+00 20000 # 1250 GeV
301924 2.9113E+02 1.0000E+00 20000 # 1500 GeV
301925 1.3823E+02 1.0000E+00 20000 # 1750 GeV
301926 7.0766E+01 1.0000E+00 40000 # 2000 GeV
301927 2.0788E+01 1.0000E+00 20000 # 2500 GeV
301928 7.0460E+00 1.0000E+00 20000 # 3000 GeV
301929 1.0493E+00 1.0000E+00 20000 # 4000 GeV
301930 2.2791E-01 1.0000E+00 40000 # 5000 GeV
################## mc15 W' ######################
301820 2.3250E+04 1.0000E+00 20000
301821 1.0795E+04 1.0000E+00 20000
301822 4.0723E+03 1.0000E+00 20000
301823 2.2463E+03 1.0000E+00 20000
301824 1.0068E+03 1.0000E+00 20000
301825 3.0493E+02 1.0000E+00 20000
301826 1.0435E+02 1.0000E+00 20000
301827 3.9373E+01 1.0000E+00 20000
301828 1.5998E+01 1.0000E+00 20000
301829 7.1533E+00 1.0000E+00 20000
301830 3.5638E+00 1.0000E+00 20000
301831 1.9955E+00 1.0000E+00 20000
301832 1.2273E+00 1.0000E+00 20000
301833 8.0718E-01 1.0000E+00 20000
################## mc15 b* ######################
301931 5.1340E+05 1.0000E+00 20000
301932 1.2413E+05 1.0000E+00 20000
301933 3.8905E+04 1.0000E+00 20000
301934 1.1223E+04 1.0000E+00 20000
301935 3.8798E+03 1.0000E+00 20000
301936 1.4690E+03 1.0000E+00 20000
301937 6.0848E+02 1.0000E+00 20000
301938 1.2263E+02 1.0000E+00 20000
301939 2.8388E+01 1.0000E+00 20000
301940 1.9318E+00 1.0000E+00 20000
301941 1.4603E-01 1.0000E+00 20000
################## QBH RS (n=1) ######################
303501 3.8820E+01 1.0000E+00 20000
303509 3.3860E-03 1.0000E+00 20000
303501 3.8820E+01 1.0000E+00 20000
303502 1.3470E+01 1.0000E+00 20000
303503 4.6510E+00 1.0000E+00 20000
303504 1.5770E+00 1.0000E+00 20000
303505 5.1900E-01 1.0000E+00 20000
303506 1.6360E-01 1.0000E+00 20000
303507 4.8680E-02 1.0000E+00 20000
303508 1.3460E-02 1.0000E+00 20000
303509 3.3860E-03 1.0000E+00 20000
################## QCD Herwig #####################
426040 7.8514E+13 9.8374E-01 2000000
426041 7.8514E+13 3.6905E-04 1964000
426042 1.6777E+12 2.6121E-04 1955500
426043 1.8118E+10 2.3539E-04 1938500
426044 1.6755E+08 3.9276E-04 1955500
426045 2.8717E+06 7.0652E-04 1954500
426046 1.5757E+05 7.5887E-04 1957500
426047 9.7880E+03 3.4609E-04 1951500
426048 3.8667E+02 8.9708E-03 1963500
426049 1.3056E+01 1.0164E-02 491000
426050 8.4140E-01 4.5845E-03 491000
426052 7.0212E-04 2.8761E-04 488000
################## QCD Sherpa #####################
426131 2.0595E+13 8.5730E-02 3000000
426132 1.0729E+11 1.4170E-01 2000000
426133 1.3075E+10 1.8538E-02 1992000
426134 9.6076E+07 2.7758E-02 1996000
426135 2.7250E+06 1.8391E-02 1999500
426136 2.0862E+05 8.6905E-03 1999400
############## ZPrime -> QQ #################
301859 2.1488E+03 1.0000E+00 20000
301860 8.6240E+03 1.0000E+00 20000
301861 1.9733E+04 1.0000E+00 20000
301862 3.6360E+02 1.0000E+00 20000
301863 1.4625E+03 1.0000E+00 20000
301864 3.3825E+03 1.0000E+00 20000
301865 8.6993E+01 1.0000E+00 20000
301866 3.5095E+02 1.0000E+00 20000
301867 8.2420E+02 1.0000E+00 20000
301868 1.6453E+03 1.0000E+00 20000
301869 1.0043E+02 1.0000E+00 20000
301870 2.4085E+02 1.0000E+00 20000
301871 5.1568E+02 1.0000E+00 20000
301872 8.9440E+02 1.0000E+00 20000
301873 1.4285E+03 1.0000E+00 20000
301874 1.8663E+02 1.0000E+00 20000
301875 3.3915E+02 1.0000E+00 20000
301876 5.6503E+02 1.0000E+00 20000
301877 8.8020E+02 1.0000E+00 20000
301878 1.2903E+03 1.0000E+00 20000
301879 4.1168E+02 1.0000E+00 20000
301880 6.2150E+02 1.0000E+00 20000
301881 8.8438E+02 1.0000E+00 20000
301882 1.1935E+03 1.0000E+00 20000
304663 2.4795E+01 1.0000E+00 20000
304664 7.8050E+00 1.0000E+00 20000
304665 3.1783E+01 1.0000E+00 20000
304666 7.8568E+01 1.0000E+00 20000
304667 2.6118E+00 1.0000E+00 20000
304668 1.0708E+01 1.0000E+00 20000
304669 2.7588E+01 1.0000E+00 20000
304670 7.6035E+01 1.0000E+00 20000
304671 1.4605E+02 1.0000E+00 20000
304672 2.5493E+02 1.0000E+00 20000
